{
  "project_info": {
    "project_number": "211584686622",
    "firebase_url": "https://accmessenger-353ca.firebaseio.com",
    "project_id": "accmessenger-353ca",
    "storage_bucket": "accmessenger-353ca.appspot.com"
  },
  "client": [
    {
      "client_info": {
        "mobilesdk_app_id": "1:211584686622:android:6abcea522fa56378",
        "android_client_info": {
          "package_name": "com.qtech.reezbhanimteaz.accmessenger"
        }
      },
      "oauth_client": [
        {
          "client_id": "211584686622-17s3pemjjrpk85lgnvci4jt7dlln35v3.apps.googleusercontent.com",
          "client_type": 3
        }
      ],
      "api_key": [
        {
          "current_key": "AIzaSyAbAN8K5lMz7KCjx8E3A9-bVQVE1bqwCjo"
        }
      ],
      "services": {
        "analytics_service": {
          "status": 1
        },
        "appinvite_service": {
          "status": 2,
          "other_platform_oauth_client": [
            {
              "client_id": "211584686622-17s3pemjjrpk85lgnvci4jt7dlln35v3.apps.googleusercontent.com",
              "client_type": 3
            }
          ]
        },
        "ads_service": {
          "status": 2
        }
      }
    }
  ],
  "configuration_version": "1"
}